…
### 4.0 Exploratory Data Analysis  


```r
#several methods to view dataframes

as_tibble(pDat)
```

```
## # A tibble: 126 × 16
##    ID    Sample                       Age Sex   COVID ICU   APACHEII_Score Charlson_Score
##    <chr> <chr>                      <int> <chr> <chr> <chr>          <int>          <int>
##  1 C1    COVID_01_39y_male_NonICU      39 male  yes   no                15              0
##  2 C2    COVID_02_63y_male_NonICU      63 male  yes   no                 0              2
##  3 C3    COVID_03_33y_male_NonICU      33 male  yes   no                 0              2
##  4 C4    COVID_04_49y_male_NonICU      49 male  yes   no                 0              1
##  5 C5    COVID_05_49y_male_NonICU      49 male  yes   no                19              1
##  6 C6    COVID_06_.y_male_NonICU        0 male  yes   no                 0              1
##  7 C7    COVID_07_38y_female_NonICU    38 fema… yes   no                 0              7
##  8 C8    COVID_08_78y_male_ICU         78 male  yes   yes               43              7
##  9 C9    COVID_09_64y_female_ICU       64 fema… yes   yes               31              2
## 10 C10   COVID_10_62y_male_ICU         62 male  yes   yes               34              1
## # … with 116 more rows, and 8 more variables: Mechanical_Ventilation <chr>,
## #   Ventilator_free_days <int>, Hospital_free_days_post_45_days <int>,
## #   Ferritin_ng.ml <int>, CRP_mg.l <dbl>, Procalcitonin_ng.ml <dbl>,
## #   Lactate_mmol.l <dbl>, Fibrinogen_mg.dL <int>
```
…
