…
# removing first row of cDat
cDat <- cDat[-1, ]

# converting the rownames to a column called Sample
cDat <- cDat %>%
    rownames_to_column(var = "Sample")

# displaying the cDat dataframe as a tibble
as_tibble(cDat)
```

```
## # A tibble: 126 x 65
##    Sample    Sample_geo_acces… Sample_status   Sample_submissi… Sample_last_upd…
##    <chr>     <chr>             <chr>           <chr>            <chr>           
##  1 COVID_01… GSM4753021        Public on Aug … Aug 28 2020      Aug 29 2020     
##  2 COVID_02… GSM4753022        Public on Aug … Aug 28 2020      Aug 29 2020     
##  3 COVID_03… GSM4753023        Public on Aug … Aug 28 2020      Aug 29 2020     
##  4 COVID_04… GSM4753024        Public on Aug … Aug 28 2020      Aug 29 2020     
##  5 COVID_05… GSM4753025        Public on Aug … Aug 28 2020      Aug 29 2020     
##  6 COVID_06… GSM4753026        Public on Aug … Aug 28 2020      Aug 29 2020     
##  7 COVID_07… GSM4753027        Public on Aug … Aug 28 2020      Aug 29 2020     
##  8 COVID_08… GSM4753028        Public on Aug … Aug 28 2020      Aug 29 2020     
##  9 COVID_09… GSM4753029        Public on Aug … Aug 28 2020      Aug 29 2020     
## 10 COVID_10… GSM4753030        Public on Aug … Aug 28 2020      Aug 29 2020     
## # … with 116 more rows, and 60 more variables: Sample_type <chr>,
## #   Sample_channel_count <chr>, Sample_source_name_ch1 <chr>,
## #   Sample_organism_ch1 <chr>, Sample_characteristics_ch1 <chr>,
## #   Sample_characteristics_ch1.1 <chr>, Sample_characteristics_ch1.2 <chr>,
## #   Sample_characteristics_ch1.3 <chr>, Sample_characteristics_ch1.4 <chr>,
## #   Sample_characteristics_ch1.5 <chr>, Sample_characteristics_ch1.6 <chr>,
## #   Sample_characteristics_ch1.7 <chr>, Sample_characteristics_ch1.8 <chr>,
## #   Sample_characteristics_ch1.9 <chr>, Sample_characteristics_ch1.10 <chr>,
## #   Sample_characteristics_ch1.11 <chr>, Sample_characteristics_ch1.12 <chr>,
…
