…
```
## See spec(...) for full column specifications.
```

```r
data
```

```
## # A tibble: 48 x 159
##    expr_geo_id meth_geo_id diagnosis tissue maternal_age maternal_bmi
##    <chr>       <chr>       <chr>     <chr>         <dbl>        <dbl>
##  1 GSM1940495  GSM2589532  PE        Place~           37         19.5
##  2 GSM1940496  GSM2589533  PE        Place~           40         25.7
##  3 GSM1940499  GSM2589534  PE        Place~           37         25  
##  4 GSM1940500  GSM2589535  PE        Place~           38         26.2
##  5 GSM1940501  GSM2589536  PE        Place~           33         31.2
##  6 GSM1940502  GSM2589537  PE        Place~           26         31.2
##  7 GSM1940505  GSM2589538  PE        Place~           31         18.6
##  8 GSM1940506  GSM2589539  PE        Place~           37         25.2
##  9 GSM1940507  GSM2589540  non-PE    Place~           35         18.6
## 10 GSM1940508  GSM2589541  PE        Place~           32         26.6
## # ... with 38 more rows, and 153 more variables: maternal_ethnicity <chr>,
## #   ga_weeks <dbl>, ga_days <dbl>, transcript_8033795 <dbl>,
## #   transcript_8103881 <dbl>, transcript_7904014 <dbl>,
## #   transcript_8127692 <dbl>, transcript_7990031 <dbl>,
## #   transcript_8121144 <dbl>, transcript_8150846 <dbl>,
## #   transcript_7962246 <dbl>, transcript_7941890 <dbl>,
## #   transcript_7896644 <dbl>, transcript_7992897 <dbl>,
## #   transcript_7973002 <dbl>, transcript_7979800 <dbl>,
## #   transcript_8112007 <dbl>, transcript_8036686 <dbl>,
…
